ADN	Familia	Proyecto	SAMPLE	TAG	tag	Categoria
15/0136	PPCI-0001	Panel 1	15-0136	PPCI	ppci	Varios
15/0159	PPCI-0002	Panel 1	15-0159	PPCI	ppci	Varios
15/0214	PPCI-0003	Panel 1	15-0214	PPCI	ppci	Varios
15/0307	RP-2417	Panel 1	15-0307	RP	rp	Distrofia de Retina
13/0623	OPA-0017	Panel 1	13-0623	OPA	opa	Atrofia optica
12/2862	OPA-0017	Panel 1	12-2862	OPA	opa	Atrofia optica
13/0626	OPA-0017	Panel 1	13-0626	OPA	opa	Atrofia optica
15/0879	MD-0923	Panel 1	15-0879	MD	md	Distrofia de Retina
15/1541	MD-0948	Panel 1	15-1541	MD	md	Distrofia de Retina
15/1851	MD-0960	Panel 1	15-1851	MD	md	Distrofia de Retina
14/1390	ACH-0398	Panel 2	14-1390	ACH	ach	Malformaciones y Sind polimalformativos
15/0859	ACH-0423	Panel 2	15-0859	ACH	ach	Malformaciones y Sind polimalformativos
15/0492	Cardio-0069	Panel 2	15-0492	Cardio	cardio	Cardiopatia
15/0926	Cardio-0080	Panel 2	15-0926	Cardio	cardio	Cardiopatia
14/1034	DM-0606	Panel 2	14-1034	DM	dm	Miopatias
.....
